…
    # A tibble: 1 × 2
      teacher_id avg_SET_score
      <chr>              <dbl>
    1 54201                  1

``` r
max_avg_row
```

    # A tibble: 29 × 2
       teacher_id avg_SET_score
       <chr>              <dbl>
     1 36250                  5
     2 3682                   5
     3 37013                  5
     4 37023                  5
     5 50714                  5
     6 50740                  5
     7 50759                  5
     8 50790                  5
     9 54309                  5
    10 54665                  5
    # ℹ 19 more rows
…
